…
```
## [1] "activity.csv"              "repdata-data-activity.zip"
```

**1. Load the data**


```r
data <- tbl_df(read.csv("./DataSets/activity.csv"))
data
```

```
## # A tibble: 17,568 x 3
##    steps date       interval
##    <int> <fct>         <int>
##  1    NA 2012-10-01        0
##  2    NA 2012-10-01        5
##  3    NA 2012-10-01       10
##  4    NA 2012-10-01       15
##  5    NA 2012-10-01       20
##  6    NA 2012-10-01       25
##  7    NA 2012-10-01       30
##  8    NA 2012-10-01       35
##  9    NA 2012-10-01       40
## 10    NA 2012-10-01       45
## # … with 17,558 more rows
```
…
**3. Create a new dataset that is equal to the original dataset but with the missing data filled in**

Replace NA values and subset dataframe to retain original columns


```r
data2$steps <- ifelse(is.na(data2$steps), data2$interval.mean, data2$steps)
data2 <- data2[,c("steps","date", "interval", "date.time")]
data2
```

```
## # A tibble: 17,568 x 4
##     steps date       interval date.time          
##     <dbl> <date>     <chr>    <dttm>             
##  1 1.72   2012-10-01 00:00    2012-10-01 00:00:00
##  2 0.340  2012-10-01 00:05    2012-10-01 00:05:00
##  3 0.132  2012-10-01 00:10    2012-10-01 00:10:00
##  4 0.151  2012-10-01 00:15    2012-10-01 00:15:00
##  5 0.0755 2012-10-01 00:20    2012-10-01 00:20:00
##  6 2.09   2012-10-01 00:25    2012-10-01 00:25:00
##  7 0.528  2012-10-01 00:30    2012-10-01 00:30:00
##  8 0.868  2012-10-01 00:35    2012-10-01 00:35:00
##  9 0      2012-10-01 00:40    2012-10-01 00:40:00
## 10 1.47   2012-10-01 00:45    2012-10-01 00:45:00
## # … with 17,558 more rows
```
…
